﻿{
	"Cart" : "Cart",
	"Sign_In" : "Sign In",
	"Download_App" : "Download App",
	"Sign_Up" : "Sign Up",
	"Yours_to_Explore" : "Yours to Explore",
	"Discover_and_book_amazing_things_to_do_at_exclusive_prices" : "Discover and book amazing things to do at exclusive prices",
	"Search_for_activities" : "Search for activities",
	"Handpicked_Experiences" : "Handpicked Experiences",
	"Read_real_user_reviews" : "Read real user reviews",
	"SeamlessSafe_Booking" : "Seamless & Safe Booking",
	"Hassle_free_eticket_entry" : "Hassle-free e-ticket entry",
	"Best_price_guaranteed" : "Best Price Guaranteed",
	"Best_activities_at_the_best_price" : "Best activities at the best price",
	"Top_Destination" : "TOP DESTINATIONS",
	"Discover_tours_attractions_and_activities_for_your_next_adventure" : "Discover tours, attractions and activities for your next adventure",
	"Explore_More_Destinations" : "Explore More Destinations",
	"Popular_Activities" : "POPULAR ACTIVITIES",
	"Favourite_experiences_booked_by_travelers" : "Favourite experiences booked by travellers",
	"booked" : "Booking",
	"Travel_Inspiration" : "TRAVEL INSPIRATION",
	"Curated_suggestions_based_on_seasons_festivals_and_interests" : "Curated suggestions based on seasons, festivals and interests",
	"Taipai" : "Taipai",
	"TicketsToDo_Recommended" : "TICKETSTODO RECOMMENDED",
	"Activities_hand_picked_by_our_travel_customers" : "Activities hand picked by our travel keepers",
	"Enter_your_email_address" : "Enter your email address",
	"Submit" : "Subscribe",
	"All_rights_Reserved" : "All rights  Reserved",
	"About" : "About",
	"About_Us" : "About Us",
	"Blog" : "Blog",
	"Method_of_payment" : "Method of payment",
	"Terms_of_use" : "Terms of use",
	"Terms_conditions" : "Terms & conditions",
	"Refund_cancellation_policy" : "Refund & cancellation policy",
	"Privacy_Policy" : "Privacy Policy",
	"Contact" : "Contact",
	"Contact_Us" : "Contact Us",
	"FAQs" : "FAQ’s",
	"Ask_TicketsToDo" : "Ask TicketsToDo",
	"Payment_Channel" : "Payment Channel"
}
